{
    "projectId":"504",
    "name": "SafeKid",
    "image": "504.jpg",
    "members": [
      {
        "name": "Tal Yacobi",
        "email": "talyacobi123@gmail.com"
      },
      {
        "name": "Ofir Shemesh",
        "email": "ofirshemesh777@gmail.com"
      },
      {
        "name": "Dor Turgeman",
        "email": "dortorg111@gmail.com"
      },
      {
        "name": "Ohad Ozcohen",
        "email": "ohadozcohen@gmail.com"
      },
      {
        "name": "Avihi Shapira",
        "email": "avichai17@gmail.com"
      }
    ],
    "instructorId": "8",
    "internshipId":"4",
    "description": "The project is a Chrome browser extension, which will protect children while browsing the web from offensive and violent images and videos by hiding them and restricting their visibility. The browser will send each media type to a pre-trained model and make sure that your kid will not be exposed to violent content. Our model will get even better and better thanks to our integration with AWS Rekognition which will enable us to perform continous learning."
  }
