{
    "projectId": "105",
    "name": "PerfectFit",
    "image": "105.jpg",
    "members": [
        {
            "name": "Lilach Bachar",
            "email": "lilachbac@gmail.com"
        },
        {
            "name": "Kely Sotsky",
            "email": "kelysot@gmail.com"
        },
        {
            "name": "Yarin Matmoni",
            "email": "yarinmatmoni@gmail.com"
        },
        {
            "name": "Eden Reuven",
            "email": "edenreuven14@gmail.com"
        },
        {
            "name": "Tal Dahan",
            "email": "tald234097@gmail.com"
        }
    ],
    "instructorId": "4",
    "internshipId": "3",
    "description": "The purpose of our system is to create a platform that allows viewing, uploading photos, and reviews of people's clothing details that are customized for us in terms of body structure and measurements. Also, we want to improve the online shopping experience that would contain all sizes and shapes available today. As a user, I can view people who have the exact dimensions as mine and the items they recommend. Also, any user can be a kind of ''fashion blogger'', since he will present his recommendations on his personal page, which will also allow future economic collaborations if his page is popular."
}