{
    "projectId":"100",
    "name": "WavesSaves",
    "image": "100.jpg",
    "members": [
      {
        "name": "Tomer Mantzuri",
        "email": "tomermantzuri@gmail.com"
      },
      {
        "name": "Ariel Varbitsky",
        "email": "arielvr333@gmail.com"
      },
      {
        "name": "Itay Bayazi",
        "email": "itay5709@gmail.com"
      },
      {
        "name": "Zehava Levayiv",
        "email": "zehava4130@gmail.com"
      },
      {
        "name": "Assaf Ben Aroya",
        "email": "asaf2605@gmail.com"
      }
    ],
    "instructorId": "1",
    "internshipId":"3",
    "description": "WavesSaves is a life-saving solution for the problem of drowning childrens and animals in unmonitored home pools. Our prodoct is a bouy that monitors the pool waves and alert when waves are caused by a fall of an object such as a child or animal into to pool, the alert sent to all the users that registerd the bouy into thier application."
  }
