{
  "compilerOptions": {
    "module": "commonjs",
    "target": "es2016",
    "jsx": "react",
    "baseUrl": "./",
    "paths": {
      "components/*": ["components/*"],
      "hooks/*": ["hooks/*"],
      "public/*": ["public/*"],
      "styles/*": ["styles/*"],
      "utils/*": ["utils/*"]
    }
  },
  "exclude": ["node_modules", "**/node_modules/*", ".next"]
}
