{
    "projectId":"115",
    "name": "MusiMatch",
    "image": "115.jpg",
    "members": [
      {
        "name": "Inon Barber",
        "email": "inonbarber110@gmail.com"
      },
      {
        "name": "liam Golan",
        "email": "liam1238@gmail.com"
      },
      {
        "name": "Hadas Adam",
        "email": "hadasadam8@cs.colman.ac.il"
      },
      {
        "name": "Yonatan Schuster",
        "email": "yonatanmsch@cs.colman.ac.il"
      },
        {
        "name": "Eyal Levi",
        "email": "fceyal@gmail.com"
      }
    ],
    "instructorId": "4",
    "internshipId":"3",
    "description": "In the final project, we present an Android app that provides a platform for publishing personal musical content. \n In the app, you can upload songs and even personal tunes and expose them to the general public, where users can create a melody for the songs. \n The purpose of the app is to connect different artists who can not create a complete work of writing and composing and even create a database of works by people who are looking for the stage to reveal their works"
  }
