{
    "projectId":"313",
    "name": "TeachHub",
    "image": "313.jpg",
    "members": [
      {
        "name": "Mor Cohen",
        "email": "x.morcohen@gmail.com"
      },
      {
        "name": "Inbal Avraham",
        "email": "inbalav123@gmail.com"
      },
      {
        "name": "Omer Dital",
        "email": "omerdital@gmail.com"
      },
      {
        "name": "Tal Mikey",
        "email": "tal.mikey@gmail.com"
      },
      {
        "name": "Amir Dana",
        "email": "amirdana115@gmail.com"
      }
    ],
    "instructorId": "9",
    "internshipId":"6",
    "description": "TeachHub is a platform for lecturing and watching lectures online. It combines registration, payment and online lectures all in one platform. This is the first to combine them all, and by so making the user's experience to be much more convenient and comfortable.\nThe icing on the cake is the cost of watching a lecture. Today, lectures might be very expensive. In TeachHub, it is recommended to charge a symbolic amount of money from your viewers, and the goal is to have many of them so at the end, the total amount one can earn for lecturing will become big!"
  }
