{
    "projectId":"401",
    "name": "Cinammon",
    "image": "401.jpg",
    "members": [
      {
        "name": "Omri Tcherner",
        "email": "omimako@gmail.com"
      },
      {
        "name": "Dan Gutstadt",
        "email": "dangutstadt1998@gmail.com"
      },
      {
        "name": "Oz Smadja",
        "email": "o23456789@gmail.com"
      },
      {
        "name": "Nadav Dayagi",
        "email": "nadav.dyg@gmail.com"
      },
      {
        "name": "Matan Kotick",
        "email": "matank001@gmail.com"
      }
    ],
    "instructorId": "7",
    "internshipId":"5",
    "description": "In our project we will create a linux introspection utility that receives remote memory values from a host machine (with our running agent, that collects for us the data) and sends the memory values to the “Investigation Center” which will start a remote investigation lab in a safe environment (docker container). The memory will be analyzed by a very powerful and open source tool well known by memory forensics analysts - Volatility.\nWhat makes us strong? Even if there is an attacker on a single host that we take samples from, the attacker will not be able to put his hands on our analysis and the way we operate, because we are analyzing our machine memory remotely in a container that won't live forever.\nFurthermore, memory dumps are big payloads (ram size can be between 4Gig and more). We do not want to transfer that much data over the network and that's why we will ask the agent on the remote unit to send us the only necessary memory addresses for each analysis."
  }
