[
  {
    "id": "1",
    "name": "Data Science",
    "description": "Data Science Internship",
    "instructors" : []
  },
  {
    "id": "2",
    "name": "Natural Language Processing",
    "description": "Natural Language Processing Internship",
    "instructors" : []
  },
  {
    "id": "3",
    "name": "Full Stack Development",
    "description": "Full Stack Development Internship",
    "instructors" : []
  },
  {
    "id": "4",
    "name": "Deep Learning",
    "description": "Deep Learning Internship",
    "instructors" : []
  },
  {
    "id": "5",
    "name": "Cyber Security",
    "description": "Cyber Security Internship",
    "instructors" : []
  },
  {
    "id": "6",
    "name": "Fintech",
    "description": "Fintech Internship",
    "instructors" : []
  }
]