{
    "projectId":"406",
    "name": "Auxtastic",
    "image": "406.jpg",
    "members": [
      {
        "name": "Tal Dahan",
        "email": "tal200.dahan@gmail.com"
      },
      {
        "name": "Gilad Shevach",
        "email": "Gilad458@gmail.com"
      },
      {
        "name": "Aviv Rabinovich",
        "email": "Aviv275@gmail.com"
      }
    ],
    "instructorId": "7",
    "internshipId":"5",
    "description": "In our daily and un-interesting lives, we have encountered the problem where some people have blocked USB-ports of computers, so we won't be able to take data from them. We disliked those sticks in the mud and sought to change that, Introducing auxtastic an (almost) plug and play device to get the data you need from the computer you can't access. using the most advanced aux technology we take the data on the user's computer transfer it into sound, and send it directly into your personal cloud server. no longer sould you not access to the data you want."
  }
