{
    "projectId":"310",
    "name": "PayGov",
    "image": "310.jpg",
    "members": [
      {
        "name": "Amir Margi",
        "email": "amir.margi@gmail.com"
      },
      {
        "name": "Nir Fridman",
        "email": "nirfrid98@gmail.com"
      },
      {
        "name": "Uri rapparot",
        "email": "rapaporturi@gmail.com"
      },
      {
        "name": "Yarden Algoar",
        "email": "yardenalgoar@gmail.com"
      },
	  {
        "name": "Igor kharkovskiy",
        "email": "igorkharkv@gmail.com"
      },
	  {
        "name": "Koral Nezri",
        "email": "nezrikoral@gmail.com"
      }
    ],
    "instructorId": "9",
    "internshipId":"6",
    "description": "PayGov is expected to change the way people pay bills and carry out their other financial transactions.\n With a few simple taps and clicks, the all-in-one bill payment application will let subscribers pay everything from utility to telecom! \n PayGov app aims to reduce the time spend on pay bills on websites or using multiple bill payment applications. \n This smart app is integrated with various government functionalities, making your life easier. The app allows you to use different types of debit and credit cards and you can also store the data regarding your cards so you can make the payments faster."
  }
